Take-home Exercise 2
…
3.0 Data Preparation

Importing Data

Using read_csv() of readr package, we first read the two sets of data (namely, Singapore Residents by Planning Area / Subzone, Age Group, Sex and Type of Dwelling, June 2000-2010.csv and Singapore Residents by Planning Area / Subzone, Age Group, Sex and Type of Dwelling, June 2011-2020.csv) used for this exercise into tibbles.

population_1 <- read_csv("Data/respopagesextod2000to2010.csv")
population_2 <- read_csv("Data/respopagesextod2011to2020.csv")
tbl_df(population_1)

# A tibble: 1,040,592 × 7
   PA         SZ        AG     Sex     TOD                   Pop  Time
   <chr>      <chr>     <chr>  <chr>   <chr>               <dbl> <dbl>
 1 Ang Mo Kio Cheng San 0_to_4 Males   HDB 1- and 2-Room …    20  2000
 2 Ang Mo Kio Cheng San 0_to_4 Males   HDB 3-Room Flats      480  2000
 3 Ang Mo Kio Cheng San 0_to_4 Males   HDB 4-Room Flats      220  2000
 4 Ang Mo Kio Cheng San 0_to_4 Males   HDB 5-Room and Exe…    80  2000
 5 Ang Mo Kio Cheng San 0_to_4 Males   HUDC Flats (exclud…     0  2000
 6 Ang Mo Kio Cheng San 0_to_4 Males   Landed Properties       0  2000
 7 Ang Mo Kio Cheng San 0_to_4 Males   Condominiums and O…     0  2000
 8 Ang Mo Kio Cheng San 0_to_4 Males   Others                  0  2000
 9 Ang Mo Kio Cheng San 0_to_4 Females HDB 1- and 2-Room …    20  2000
10 Ang Mo Kio Cheng San 0_to_4 Females HDB 3-Room Flats      390  2000
# … with 1,040,582 more rows

tbl_df(population_2)

# A tibble: 984,656 × 7
   PA         SZ                     AG     Sex     TOD      Pop  Time
   <chr>      <chr>                  <chr>  <chr>   <chr>  <dbl> <dbl>
 1 Ang Mo Kio Ang Mo Kio Town Centre 0_to_4 Males   HDB 1…     0  2011
 2 Ang Mo Kio Ang Mo Kio Town Centre 0_to_4 Males   HDB 3…    10  2011
 3 Ang Mo Kio Ang Mo Kio Town Centre 0_to_4 Males   HDB 4…    30  2011
 4 Ang Mo Kio Ang Mo Kio Town Centre 0_to_4 Males   HDB 5…    50  2011
 5 Ang Mo Kio Ang Mo Kio Town Centre 0_to_4 Males   HUDC …     0  2011
 6 Ang Mo Kio Ang Mo Kio Town Centre 0_to_4 Males   Lande…     0  2011
 7 Ang Mo Kio Ang Mo Kio Town Centre 0_to_4 Males   Condo…    40  2011
 8 Ang Mo Kio Ang Mo Kio Town Centre 0_to_4 Males   Others     0  2011
 9 Ang Mo Kio Ang Mo Kio Town Centre 0_to_4 Females HDB 1…     0  2011
10 Ang Mo Kio Ang Mo Kio Town Centre 0_to_4 Females HDB 3…    10  2011
# … with 984,646 more rows

Merging two dataframes

As the both data sets have the same number of columns and the same column names, we could merge the two data sets int one by using rbind() fucntion. This function enables the users to stack the two data frames on top of each other, appending the second data frame to the first.

population <-rbind(population_1, population_2)
tbl_df(population)

# A tibble: 2,025,248 × 7
   PA         SZ        AG     Sex     TOD                   Pop  Time
   <chr>      <chr>     <chr>  <chr>   <chr>               <dbl> <dbl>
 1 Ang Mo Kio Cheng San 0_to_4 Males   HDB 1- and 2-Room …    20  2000
 2 Ang Mo Kio Cheng San 0_to_4 Males   HDB 3-Room Flats      480  2000
 3 Ang Mo Kio Cheng San 0_to_4 Males   HDB 4-Room Flats      220  2000
 4 Ang Mo Kio Cheng San 0_to_4 Males   HDB 5-Room and Exe…    80  2000
 5 Ang Mo Kio Cheng San 0_to_4 Males   HUDC Flats (exclud…     0  2000
 6 Ang Mo Kio Cheng San 0_to_4 Males   Landed Properties       0  2000
 7 Ang Mo Kio Cheng San 0_to_4 Males   Condominiums and O…     0  2000
 8 Ang Mo Kio Cheng San 0_to_4 Males   Others                  0  2000
 9 Ang Mo Kio Cheng San 0_to_4 Females HDB 1- and 2-Room …    20  2000
10 Ang Mo Kio Cheng San 0_to_4 Females HDB 3-Room Flats      390  2000
# … with 2,025,238 more rows
…
Computing the population count

Then data set would be grouped by Planning Area, Age Group, Sex and Time. To compute the total population for each of the group, use summarise() to sum up the population count. Then we arrange the data by PA, Age Group and Sex, followed by ungrouping the data for future operations on the grouping variables.

population_sorted <-
  population %>% 
  group_by(PA, AG, Sex, Time) %>% 
  summarise(Count = sum(Pop)) %>%
  arrange(PA, AG, Sex) %>%
  ungroup()
tbl_df(population_sorted)

# A tibble: 43,890 × 5
   PA         AG     Sex      Time Count
   <chr>      <ord>  <chr>   <dbl> <dbl>
 1 Ang Mo Kio 0_to_4 Females  2000  4460
 2 Ang Mo Kio 0_to_4 Females  2001  4320
 3 Ang Mo Kio 0_to_4 Females  2002  4220
 4 Ang Mo Kio 0_to_4 Females  2003  4010
 5 Ang Mo Kio 0_to_4 Females  2004  3870
 6 Ang Mo Kio 0_to_4 Females  2005  3640
 7 Ang Mo Kio 0_to_4 Females  2006  3600
 8 Ang Mo Kio 0_to_4 Females  2007  3670
 9 Ang Mo Kio 0_to_4 Females  2008  3850
10 Ang Mo Kio 0_to_4 Females  2009  4120
# … with 43,880 more rows
…
